<?xml version="1.0" encoding="UTF-8" standalone="no"?>
<svg
   xmlns:dc="http://purl.org/dc/elements/1.1/"
   xmlns:cc="http://creativecommons.org/ns#"
   xmlns:rdf="http://www.w3.org/1999/02/22-rdf-syntax-ns#"
   xmlns:svg="http://www.w3.org/2000/svg"
   xmlns="http://www.w3.org/2000/svg"
   xmlns:sodipodi="http://sodipodi.sourceforge.net/DTD/sodipodi-0.dtd"
   xmlns:inkscape="http://www.inkscape.org/namespaces/inkscape"
   viewBox="0 0 24 24"
   fill="white"
   width="48px"
   height="48px"
   id="svg3336"
   version="1.1"
   inkscape:version="0.91 r13725"
   sodipodi:docname="home-white.svg">
  <metadata
     id="metadata3346">
    <rdf:RDF>
      <cc:Work
         rdf:about="">
        <dc:format>image/svg+xml</dc:format>
        <dc:type
           rdf:resource="http://purl.org/dc/dcmitype/StillImage" />
        <dc:title></dc:title>
      </cc:Work>
    </rdf:RDF>
  </metadata>
  <defs
     id="defs3344" />
  <sodipodi:namedview
     pagecolor="#ffffff"
     bordercolor="#666666"
     borderopacity="1"
     objecttolerance="10"
     gridtolerance="10"
     guidetolerance="10"
     inkscape:pageopacity="0"
     inkscape:pageshadow="2"
     inkscape:window-width="855"
     inkscape:window-height="687"
     id="namedview3342"
     showgrid="false"
     inkscape:zoom="4.9583333"
     inkscape:cx="57.983193"
     inkscape:cy="24"
     inkscape:window-x="50"
     inkscape:window-y="28"
     inkscape:window-maximized="0"
     inkscape:current-layer="svg3336" />
  <path
     d="M0 0h24v24H0V0z"
     fill="none"
     id="path3338" />
  <path
     d="M12 4c4.41 0 8 3.59 8 8s-3.59 8-8 8-8-3.59-8-8 3.59-8 8-8m0-2C6.48 2 2 6.48 2 12s4.48 10 10 10 10-4.48 10-10S17.52 2 12 2z"
     id="path3340" />
  <path
     inkscape:connector-curvature="0"
     d="m 11.899159,6.6450272 3.638656,3.4055858 0,5.910583 -1.455463,0 0,-4.540781 -4.3663855,0 0,4.540781 -1.4554623,0 0,-5.910583 3.6386548,-3.4055858 m 0,-2.0357835 -7.2773102,6.8111713 2.1831933,0 0,6.054374 4.3663859,0 0,-4.540781 1.455462,0 0,4.540781 4.366387,0 0,-6.054374 2.183193,0 -7.277311,-6.8111713 z"
     id="path4152" />
</svg>
